{
  "disableAutoOpen": false,
  "highlightTheme": "zenburn",
  "host": "localhost",
  "scripts": [],
  "css": [],
  "preprocessor": null,
  "port": 8888,
  "print": false,
  "revealOptions": {"transition":"zoom"},
  "template": "template/reveal.html",
  "listingTemplate": "template/listing.html",
  "theme": "souler-teal",
  "title": "Presentation",
  "separator": "\r?\n---\r?\n",
  "static": false,
  "staticDirs": [],
  "verticalSeparator": "\r?\n----\r?\n",
  "watch": false
}
